{
    "role": "doctor",
    "documentType": "CC",
    "document": "9999999998",
    "name": {
        "first": "Doctor",
        "last": "Test"
    },
    "email": "doctor@test.lan",
    "birthdate": "1989-12-31",
    "gender": "M",
    "address": {
        "street": "Cr 20 #23-50",
        "city": "Bogotá",
        "state": "Distrito Capital",
        "zip": "11001"
    },
    "phone": "3124567568",
    "photo": ""
}